{
	"data": {
		"full_callset": "../data/callset/vcf/assemblies/multisample-vcfs/assemblies-all-biallelic-filtered.vcf",
		"HG00731": {
			"reads" : ["../data/downloaded/reads/HG00731/HG00731_1.fastq.gz", "../data/downloaded/reads/HG00731/HG00731_2.fastq.gz"],
			"sex": "M",
			"graph": "../data/callset/vcf/assemblies/multisample-vcfs/assemblies-noHG00731-filtered.normalized.vcf.gz",
			"biallelic": "../data/callset/vcf/assemblies/multisample-vcfs/assemblies-noHG00731-biallelic-filtered.vcf",
			"untypable": "../data/callset/vcf/assemblies/statistics/untypable-ids/HG00731-untypable.tsv",
			"truth": "../data/callset/vcf/assemblies/multisample-vcfs/assemblies-onlyHG00731-biallelic-filtered.vcf",
			"bed": "../data/callset/vcf/assemblies/bed/HG00731_callable.bed"
		},
		"NA12878": {
			"reads": ["../data/downloaded/reads/NA12878/NA12878_1.fastq.gz", "../data/downloaded/reads/NA12878/NA12878_2.fastq.gz"],
			"sex": "F",
			"graph": "../data/callset/vcf/assemblies/multisample-vcfs/assemblies-noNA12878-filtered.normalized.vcf.gz",
			"biallelic": "../data/callset/vcf/assemblies/multisample-vcfs/assemblies-noNA12878-biallelic-filtered.vcf",
			"untypable": "../data/callset/vcf/assemblies/statistics/untypable-ids/NA12878-untypable.tsv",
			"untypable_external": "../data/callset/vcf/assemblies/giab-small/giab-small-unique.tsv",
			"truth": "../data/callset/vcf/assemblies/multisample-vcfs/assemblies-onlyNA12878-biallelic-filtered.vcf",
			"bed": "../data/callset/vcf/assemblies/bed/NA12878_callable.bed",
			"external": "../data/callset/vcf/assemblies/giab-small/giab-small-filtered.vcf.gz",
			"external_bed": "../data/downloaded/vcf/giab/hg38/HG001_GRCh38_GIAB_highconf_CG-IllFB-IllGATKHC-Ion-10X-SOLID_CHROM1-X_v.3.3.2_highconf_nosomaticdel_noCENorHET7.bed"
		},
		"NA24385": {
			"reads": ["../data/downloaded/reads/NA24385/NA24385_1.fastq.gz", "../data/downloaded/reads/NA24385/NA24385_2.fastq.gz"],
			"sex": "M",
			"graph": "../data/callset/vcf/assemblies/multisample-vcfs/assemblies-noNA24385-filtered.normalized.vcf.gz",
			"biallelic": "../data/callset/vcf/assemblies/multisample-vcfs/assemblies-noNA24385-biallelic-filtered.vcf",
			"untypable": "../data/callset/vcf/assemblies/statistics/untypable-ids/NA24385-untypable.tsv",
			"untypable_external": "../data/callset/vcf/assemblies/giab-sv/giab-sv-unique.tsv",
			"truth": "../data/callset/vcf/assemblies/multisample-vcfs/assemblies-onlyNA24385-biallelic-filtered.vcf",
			"bed": "../data/callset/vcf/assemblies/bed/NA24385_callable.bed",
			"external": "../data/callset/vcf/assemblies/giab-sv/giab-sv-filtered.vcf.gz",
			"external_bed": "../data/downloaded/vcf/giab/hg38/HG002v11-align2-GRCh38.dip.bed"
		},
		"syndip": {
			"reads": ["../data/downloaded/reads/syndip/syndip_1.fastq.gz", "../data/downloaded/reads/syndip/syndip_2.fastq.gz"],
			"sex": "F",
			"graph": "../data/callset/vcf/assemblies/multisample-vcfs/assemblies-all-filtered.normalized.vcf.gz",
			"biallelic": "../data/callset/vcf/assemblies/multisample-vcfs/assemblies-all-biallelic-filtered.vcf",
			"untypable": "",
			"untypable_external": "../data/callset/vcf/assemblies/syndip/syndip-unique.tsv",
			"truth": "",
			"bed": "../data/downloaded/vcf/syndip/full.38.bed",
			"external": "../data/callset/vcf/assemblies/syndip/syndip-filtered.vcf.gz",
			"external_bed": "../data/downloaded/vcf/syndip/full.38.bed"
		},
		"reference": "../data/downloaded/fasta/GRCh38_full_analysis_set_plus_decoy_hla.fa",
		"reference_version" : "hg38",
		"samples": ["HG00731","NA12878", "NA24385", "syndip"],
		"repeats": "../data/downloaded/bed/hg38/ucsc-simple-repeats.merged.bed",
		"mhc_bed": "mhc/mhc-hg38.bed",
		"complex": "../data/callset/vcf/assemblies/statistics/complex-bubbles-all.bed"
	},
	"programs": {
		"pangenie": "../../tools/pangenie",
		"platypus": "../../tools/platypus/Platypus-master/bin/Platypus.py",
		"bayestyper": "../../tools/bayestyper/bayesTyper_v1.5_linux_x86_64/bin/bayesTyper",
		"bayestyper_tools": "../../tools/bayestyper/bayesTyper_v1.5_linux_x86_64/bin/bayesTyperTools",
		"kmc": "../../tools/kmc/kmc",
		"paragraph" : "../../tools/paragraph",
		"graphtyper": "../../tools/graphtyper/graphtyper"
	},
	"parameters": {
		"nr_samples": ["10"],
		"chromosomes": ["1", "2", "3", "4", "5", "6", "7", "8", "9", "10", "11", "12", "13", "14", "15", "16", "17", "18", "19", "20", "21", "22", "X"],
		"outname": "results",
		"outname_reads": "reads",
		"bayestyper_reference_canon" : "../../tools/bayestyper/bayestyper_GRCh38_bundle_v1.3/GRCh38_canon.fa",
		"bayestyper_reference_decoy" : "../../tools/bayestyper/bayestyper_GRCh38_bundle_v1.3/GRCh38_decoy.fa"
	}
}

