{
  "__default__":
  {
    "cores": "{threads}",
    "mem_mb": "{resources.mem_total_mb}",
    "name": "{jobid}_{rule}",
    "output": "log/cluster_jobs/stdout/{jobid}_{rule}.stdout",
    "error": "log/cluster_jobs/stderr/{jobid}_{rule}.stderr",
    "account": "PanGenotyping",
    "run_hrs": "{resources.runtime_hrs}",
    "run_min": "{resources.runtime_min}"
  }
}
