{
	"reference": "downloaded/fasta/GRCh38_full_analysis_set_plus_decoy_hla.fa",
	"repeats": "ucsc-repeats/ucsc-simple-repeats.bed",
	"dataset":
	{
		"assemblies":
			{
				"contigs" :
					{
					"HG00512": ["/gpfs/project/projects/medbioinf/data/share/jana_v13_phased_hifi_assemblies/HG00512_hgsvc_pbsq2-ccs_1000-hifiasm.h1-un.fasta","/gpfs/project/projects/medbioinf/data/share/jana_v13_phased_hifi_assemblies/HG00512_hgsvc_pbsq2-ccs_1000-hifiasm.h2-un.fasta"],
					"HG00513": ["/gpfs/project/projects/medbioinf/data/share/jana_v13_phased_hifi_assemblies/HG00513_hgsvc_pbsq2-ccs_1000-hifiasm.h1-un.fasta","/gpfs/project/projects/medbioinf/data/share/jana_v13_phased_hifi_assemblies/HG00513_hgsvc_pbsq2-ccs_1000-hifiasm.h2-un.fasta"],
					"HG00514": ["/gpfs/project/projects/medbioinf/data/share/jana_v13_phased_hifi_assemblies/HG00514_hgsvc_pbsq2-ccs_1000-hifiasm.h1-un.fasta","/gpfs/project/projects/medbioinf/data/share/jana_v13_phased_hifi_assemblies/HG00514_hgsvc_pbsq2-ccs_1000-hifiasm.h2-un.fasta"],
					"HG00731": ["/gpfs/project/projects/medbioinf/data/share/jana_v13_phased_hifi_assemblies/HG00731_hgsvc_pbsq2-ccs_1000-hifiasm.h1-un.fasta","/gpfs/project/projects/medbioinf/data/share/jana_v13_phased_hifi_assemblies/HG00731_hgsvc_pbsq2-ccs_1000-hifiasm.h2-un.fasta"],
					"HG00732": ["/gpfs/project/projects/medbioinf/data/share/jana_v13_phased_hifi_assemblies/HG00732_hgsvc_pbsq2-ccs_1000-hifiasm.h1-un.fasta","/gpfs/project/projects/medbioinf/data/share/jana_v13_phased_hifi_assemblies/HG00732_hgsvc_pbsq2-ccs_1000-hifiasm.h2-un.fasta"],
					"HG00733": ["/gpfs/project/projects/medbioinf/data/share/jana_v13_phased_hifi_assemblies/HG00733_hgsvc_pbsq2-ccs_1000-hifiasm.h1-un.fasta","/gpfs/project/projects/medbioinf/data/share/jana_v13_phased_hifi_assemblies/HG00733_hgsvc_pbsq2-ccs_1000-hifiasm.h2-un.fasta"],
					"HG02818": ["/gpfs/project/projects/medbioinf/data/share/jana_v13_phased_hifi_assemblies/HG02818_hgsvc_pbsq2-ccs_1000-hifiasm.h1-un.fasta","/gpfs/project/projects/medbioinf/data/share/jana_v13_phased_hifi_assemblies/HG02818_hgsvc_pbsq2-ccs_1000-hifiasm.h2-un.fasta"],
					"HG03125": ["/gpfs/project/projects/medbioinf/data/share/jana_v13_phased_hifi_assemblies/HG03125_hgsvc_pbsq2-ccs_1000-hifiasm.h1-un.fasta","/gpfs/project/projects/medbioinf/data/share/jana_v13_phased_hifi_assemblies/HG03125_hgsvc_pbsq2-ccs_1000-hifiasm.h2-un.fasta"],
					"HG03486": ["/gpfs/project/projects/medbioinf/data/share/jana_v13_phased_hifi_assemblies/HG03486_hgsvc_pbsq2-ccs_1000-hifiasm.h1-un.fasta","/gpfs/project/projects/medbioinf/data/share/jana_v13_phased_hifi_assemblies/HG03486_hgsvc_pbsq2-ccs_1000-hifiasm.h2-un.fasta"],
					"NA12878": ["/gpfs/project/projects/medbioinf/data/share/jana_v13_phased_hifi_assemblies/NA12878_giab_pbsq2-ccs_1000-hifiasm.h1-un.fasta","/gpfs/project/projects/medbioinf/data/share/jana_v13_phased_hifi_assemblies/NA12878_giab_pbsq2-ccs_1000-hifiasm.h2-un.fasta"],
					"NA19238": ["/gpfs/project/projects/medbioinf/data/share/jana_v13_phased_hifi_assemblies/NA19238_hgsvc_pbsq2-ccs_1000-hifiasm.h1-un.fasta","/gpfs/project/projects/medbioinf/data/share/jana_v13_phased_hifi_assemblies/NA19238_hgsvc_pbsq2-ccs_1000-hifiasm.h2-un.fasta"],
					"NA19239": ["/gpfs/project/projects/medbioinf/data/share/jana_v13_phased_hifi_assemblies/NA19239_hgsvc_pbsq2-ccs_1000-hifiasm.h1-un.fasta","/gpfs/project/projects/medbioinf/data/share/jana_v13_phased_hifi_assemblies/NA19239_hgsvc_pbsq2-ccs_1000-hifiasm.h2-un.fasta"],
					"NA19240": ["/gpfs/project/projects/medbioinf/data/share/jana_v13_phased_hifi_assemblies/NA19240_hgsvc_pbsq2-ccs_1000-hifiasm.h1-un.fasta","/gpfs/project/projects/medbioinf/data/share/jana_v13_phased_hifi_assemblies/NA19240_hgsvc_pbsq2-ccs_1000-hifiasm.h2-un.fasta"],
					"NA24385": ["/gpfs/project/projects/medbioinf/data/share/jana_v13_phased_hifi_assemblies/NA24385_hpg_pbsq2-ccs_1000-hifiasm.h1-un.fasta","/gpfs/project/projects/medbioinf/data/share/jana_v13_phased_hifi_assemblies/NA24385_hpg_pbsq2-ccs_1000-hifiasm.h2-un.fasta"]
					},
				"trios":
					{
						"HG00733": ["HG00731", "HG00732"],
						"HG00514": ["HG00512", "HG00513"],
						"NA19240": ["NA19238", "NA19239"]
					},
				"sex":
					{
						"HG00512": "m",
						"HG00513": "f",
						"HG00514": "f",
						"HG00731": "m",
						"HG00732": "f",
						"HG00733": "f",	
						"HG02818": "f",
						"HG03125": "f",
						"HG03486": "f",
						"NA12878": "f",
						"NA19238": "f",
						"NA19239": "m",
						"NA19240": "f",
						"NA24385": "m"
					},
				"leave_out_sample" : ["HG00731", "NA12878", "NA24385"]
			},
		"giab-small": "downloaded/vcf/giab/hg38/HG001_GRCh38_GIAB_highconf_CG-IllFB-IllGATKHC-Ion-10X-SOLID_CHROM1-X_v.3.3.2_highconf_PGandRTGphasetransfer.vcf.gz",
		"syndip": "downloaded/vcf/syndip/full.38.vcf.gz",
		"giab-sv": "downloaded/vcf/giab/hg38/HG002v11-align2-GRCh38.dip.vcf.gz"
	},
	"scripts": "../scripts",
	"outdir": "callset-no-alt/vcf/assemblies/"
}
